{
	"ImportPath": "github.com/cheikhshift/gos",
	"GoVersion": "go1.5",
	"GodepVersion": "v79",
	"Deps": [
		{
			"ImportPath": "github.com/fatih/color",
			"Comment": "v1.5.0-4-g67c513e",
			"Rev": "67c513e5729f918f5e69786686770c27141a4490"
		},
		{
			"ImportPath": "github.com/mattn/go-colorable",
			"Comment": "v0.0.9-2-g6c0fd4a",
			"Rev": "6c0fd4aa6ec5818d5e3ea9e03ae436972a6c5a9a"
		},
		{
			"ImportPath": "github.com/mattn/go-isatty",
			"Comment": "v0.0.2",
			"Rev": "fc9e8d8ef48496124e79ae0df75490096eccf6fe"
		},
		{
			"ImportPath": "golang.org/x/sys/unix",
			"Rev": "b90f89a1e7a9c1f6b918820b3daa7f08488c8594"
		}
	]
}
